v 20050820 1
P 0 200 150 200 1 0 0
{
T 100 250 5 8 0 1 0 0 1
pinnumber=1
T 100 250 5 8 0 0 0 0 1
pinseq=1
}
P 800 200 650 200 1 0 0
{
T 600 250 5 8 0 1 0 0 1
pinnumber=2
T 600 250 5 8 0 0 0 0 1
pinseq=2
}
L 350 400 350 0 3 0 0 0 -1 -1
L 650 200 450 200 3 0 0 0 -1 -1
L 350 200 150 200 3 0 0 0 -1 -1
T 0 900 5 10 0 0 0 0 1
device=CAPACITOR
A 1150 200 700 165 30 3 0 0 0 -1 -1
T 100 400 8 10 1 1 0 0 1
refdes=C?
T 0 0 8 10 0 1 0 0 1
pins=2
T 0 0 8 10 0 1 0 0 1
class=DISCRETE
T 0 700 9 10 0 0 0 0 1
footprint=0805
T 100 0 9 10 1 1 0 0 1
value=0.1
