v 20070526 1
P 600 1000 600 800 1 0 0
{
T 500 850 5 6 1 1 0 0 1
pinnumber=S
T 500 850 5 6 0 0 0 0 1
pinseq=1
T 500 850 5 6 0 1 0 0 1
pinlabel=D
T 500 850 5 6 0 1 0 0 1
pintype=pas
}
P 600 200 600 0 1 0 1
{
T 500 50 5 6 1 1 0 0 1
pinnumber=D
T 500 50 5 6 0 0 0 0 1
pinseq=3
T 500 50 5 6 0 1 0 0 1
pinlabel=S
T 500 50 5 6 0 1 0 0 1
pintype=pas
}
V 500 501 316 3 0 0 0 -1 -1 0 -1 -1 -1 -1 -1
L 400 700 400 300 3 0 0 0 -1 -1
P 0 500 184 500 1 0 0
{
T 100 550 5 6 1 1 0 0 1
pinnumber=G
T 100 550 5 6 0 0 0 0 1
pinseq=2
T 100 550 5 6 0 1 0 0 1
pinlabel=G
T 100 550 5 6 0 1 0 0 1
pintype=pas
}
L 400 500 184 500 3 0 0 0 -1 -1
T 900 500 8 10 1 1 0 0 1
refdes=Q?
L 600 800 600 640 3 0 0 0 -1 -1
L 440 700 440 580 3 0 0 0 -1 -1
L 440 300 440 420 3 0 0 0 -1 -1
L 440 440 440 560 3 0 0 0 -1 -1
L 440 640 600 640 3 0 0 0 -1 -1
L 440 360 600 360 3 0 0 0 -1 -1
L 600 200 600 360 3 0 0 0 -1 -1
L 600 500 600 640 3 0 0 0 -1 -1
L 440 500 560 500 3 0 0 0 -1 -1
L 600 700 680 700 3 0 0 0 -1 -1
L 660 530 720 530 3 0 0 0 -1 -1
L 680 700 690 700 3 0 0 0 -1 -1
L 690 580 690 700 3 0 0 0 -1 -1
L 660 470 690 530 3 0 0 0 -1 -1
L 720 470 690 530 3 0 0 0 -1 -1
L 660 470 720 470 3 0 0 0 -1 -1
L 690 530 690 580 3 0 0 0 -1 -1
L 600 300 690 300 3 0 0 0 -1 -1
L 690 300 690 470 3 0 0 0 -1 -1
V 600 700 5 3 0 0 0 -1 -1 1 -1 -1 1 -1 1
V 600 640 5 3 0 0 0 -1 -1 1 -1 -1 1 -1 1
V 600 300 5 3 0 0 0 -1 -1 1 -1 -1 1 -1 1
L 600 500 560 520 3 0 0 0 -1 -1
L 560 520 560 480 3 0 0 0 -1 -1
L 560 480 600 500 3 0 0 0 -1 -1
T 900 1400 9 10 0 0 0 0 1
documentation=http://www.fairchildsemi.com/ds/ND/NDS9407.pdf
T 900 1600 9 10 0 0 0 0 1
device=NDS9407
T 900 1200 9 10 0 0 0 0 1
footprint=SO8-NDS9407
T 900 1800 9 10 0 0 0 0 1
description=60V P-channel PowerTrench MOSFET
T 900 300 3 10 1 1 0 0 1
value=NDS9407
